%!Adobe-FontList 1.22
%Locale:0x409

%BeginFont
Handler:DirectoryHandler
FontType:Invalid
OutlineFileName:/Users/lxw2175/Documents/git/govspeak-ho-sovereign-borders/english/main-doc/CCS207_CCS0820091708-001_Sovereign Borders Text COLLECT/Document fonts/AdobeFnt22.lst
FileLength:8859
FileModTime:638268463
%EndFont

%BeginFont
Handler:DirectoryHandler
FontType:TrueType
FontName:ArialMT
FamilyName:Arial
StyleName:Regular
MenuName:Arial
StyleBits:0
WeightClass:400
WidthClass:5
AngleClass:0
FullName:Arial
WritingScript:Roman
OutlineFileName:/Users/lxw2175/Documents/git/govspeak-ho-sovereign-borders/english/main-doc/CCS207_CCS0820091708-001_Sovereign Borders Text COLLECT/Document fonts/Arial.ttf
DataFormat:sfntData
hasSVG:no
VariableFontType:NonVariableFont
FileLength:773236
FileModTime:638207348
NameArray:0,Mac,4,Arial
NameArray:0,Win,1,Arial
%EndFont

%BeginFont
Handler:DirectoryHandler
FontType:TrueType
FontName:Barlow-Bold
FamilyName:Barlow
StyleName:Bold
MenuName:Barlow
StyleBits:2
WeightClass:700
WidthClass:5
AngleClass:0
FullName:Barlow Bold
WritingScript:Roman
OutlineFileName:/Users/lxw2175/Documents/git/govspeak-ho-sovereign-borders/english/main-doc/CCS207_CCS0820091708-001_Sovereign Borders Text COLLECT/Document fonts/Barlow-Bold.ttf
DataFormat:sfntData
hasSVG:no
VariableFontType:NonVariableFont
FileLength:102468
FileModTime:530668800
NameArray:0,Win,1,Barlow
%EndFont

%BeginFont
Handler:DirectoryHandler
FontType:TrueType
FontName:Barlow-Italic
FamilyName:Barlow
StyleName:Italic
MenuName:Barlow
StyleBits:1
WeightClass:400
WidthClass:5
AngleClass:1
FullName:Barlow Italic
WritingScript:Roman
OutlineFileName:/Users/lxw2175/Documents/git/govspeak-ho-sovereign-borders/english/main-doc/CCS207_CCS0820091708-001_Sovereign Borders Text COLLECT/Document fonts/Barlow-Italic.ttf
DataFormat:sfntData
hasSVG:no
VariableFontType:NonVariableFont
FileLength:103780
FileModTime:530668800
NameArray:0,Win,1,Barlow
%EndFont

%BeginFont
Handler:DirectoryHandler
FontType:TrueType
FontName:Barlow-LightItalic
FamilyName:Barlow
StyleName:Light Italic
MenuName:Barlow Light
StyleBits:1
WeightClass:300
WidthClass:5
AngleClass:1
FullName:Barlow Light Italic
WritingScript:Roman
OutlineFileName:/Users/lxw2175/Documents/git/govspeak-ho-sovereign-borders/english/main-doc/CCS207_CCS0820091708-001_Sovereign Borders Text COLLECT/Document fonts/Barlow-LightItalic.ttf
DataFormat:sfntData
hasSVG:no
VariableFontType:NonVariableFont
FileLength:103064
FileModTime:530668800
NameArray:0,Win,1,Barlow Light
NameArray:0,Win,16,Barlow
%EndFont

%BeginFont
Handler:DirectoryHandler
FontType:TrueType
FontName:Barlow-Medium
FamilyName:Barlow
StyleName:Medium
MenuName:Barlow Medium
StyleBits:0
WeightClass:500
WidthClass:5
AngleClass:0
FullName:Barlow Medium
WritingScript:Roman
OutlineFileName:/Users/lxw2175/Documents/git/govspeak-ho-sovereign-borders/english/main-doc/CCS207_CCS0820091708-001_Sovereign Borders Text COLLECT/Document fonts/Barlow-Medium.ttf
DataFormat:sfntData
hasSVG:no
VariableFontType:NonVariableFont
FileLength:97776
FileModTime:530668800
NameArray:0,Win,1,Barlow Medium
NameArray:0,Win,16,Barlow
%EndFont

%BeginFont
Handler:DirectoryHandler
FontType:TrueType
FontName:Barlow-Regular
FamilyName:Barlow
StyleName:Regular
MenuName:Barlow
StyleBits:0
WeightClass:400
WidthClass:5
AngleClass:0
FullName:Barlow Regular
WritingScript:Roman
OutlineFileName:/Users/lxw2175/Documents/git/govspeak-ho-sovereign-borders/english/main-doc/CCS207_CCS0820091708-001_Sovereign Borders Text COLLECT/Document fonts/Barlow-Regular.ttf
DataFormat:sfntData
hasSVG:no
VariableFontType:NonVariableFont
FileLength:98340
FileModTime:530668800
NameArray:0,Win,1,Barlow
%EndFont

%BeginFont
Handler:DirectoryHandler
FontType:TrueType
FontName:Barlow-SemiBold
FamilyName:Barlow
StyleName:SemiBold
MenuName:Barlow SemiBold
StyleBits:0
WeightClass:600
WidthClass:5
AngleClass:0
FullName:Barlow SemiBold
WritingScript:Roman
OutlineFileName:/Users/lxw2175/Documents/git/govspeak-ho-sovereign-borders/english/main-doc/CCS207_CCS0820091708-001_Sovereign Borders Text COLLECT/Document fonts/Barlow-SemiBold.ttf
DataFormat:sfntData
hasSVG:no
VariableFontType:NonVariableFont
FileLength:102548
FileModTime:530668800
NameArray:0,Win,1,Barlow SemiBold
NameArray:0,Win,16,Barlow
%EndFont

%BeginFont
Handler:DirectoryHandler
FontType:TrueType
FontName:BarlowCondensed-Italic
FamilyName:Barlow Condensed
StyleName:Italic
MenuName:Barlow Condensed
StyleBits:1
WeightClass:400
WidthClass:3
AngleClass:1
FullName:Barlow Condensed Italic
WritingScript:Roman
OutlineFileName:/Users/lxw2175/Documents/git/govspeak-ho-sovereign-borders/english/main-doc/CCS207_CCS0820091708-001_Sovereign Borders Text COLLECT/Document fonts/BarlowCondensed-Italic.ttf
DataFormat:sfntData
hasSVG:no
VariableFontType:NonVariableFont
FileLength:103808
FileModTime:530668800
NameArray:0,Win,1,Barlow Condensed
%EndFont

%BeginFont
Handler:DirectoryHandler
FontType:TrueType
FontName:BarlowCondensed-SemiBold
FamilyName:Barlow Condensed
StyleName:SemiBold
MenuName:Barlow Condensed SemiBold
StyleBits:0
WeightClass:600
WidthClass:3
AngleClass:0
FullName:Barlow Condensed SemiBold
WritingScript:Roman
OutlineFileName:/Users/lxw2175/Documents/git/govspeak-ho-sovereign-borders/english/main-doc/CCS207_CCS0820091708-001_Sovereign Borders Text COLLECT/Document fonts/BarlowCondensed-SemiBold.ttf
DataFormat:sfntData
hasSVG:no
VariableFontType:NonVariableFont
FileLength:103412
FileModTime:530668800
NameArray:0,Win,1,Barlow Condensed SemiBold
NameArray:0,Win,16,Barlow Condensed
%EndFont

%BeginFont
Handler:DirectoryHandler
FontType:Type1
FontName:MinionPro-Regular
FamilyName:Minion Pro
StyleName:Regular
MenuName:Minion Pro
StyleBits:0
WeightClass:400
WidthClass:5
AngleClass:0
FullName:Minion Pro
WritingScript:Roman
OutlineFileName:/Users/lxw2175/Documents/git/govspeak-ho-sovereign-borders/english/main-doc/CCS207_CCS0820091708-001_Sovereign Borders Text COLLECT/Document fonts/MinionPro-Regular.otf
DataFormat:sfntData
UsesStandardEncoding:yes
isCFF:yes
hasSVG:no
VariableFontType:NonVariableFont
FileLength:217280
FileModTime:389018482
DesignSize:110
NameArray:0,Mac,4,Minion Pro
NameArray:0,Win,1,Minion Pro
%EndFont

%BeginFont
Handler:DirectoryHandler
FontType:TrueType
FontName:Times-Bold
FamilyName:Times
StyleName:Bold
MenuName:Times
StyleBits:0
WeightClass:700
WidthClass:5
AngleClass:0
FullName:Times Bold
WritingScript:Roman
OutlineFileName:/Users/lxw2175/Documents/git/govspeak-ho-sovereign-borders/english/main-doc/CCS207_CCS0820091708-001_Sovereign Borders Text COLLECT/Document fonts/Times.ttc
TTCOffset:388
DataFormat:sfntData
hasSVG:no
VariableFontType:NonVariableFont
FileLength:915932
FileModTime:638207348
NameArray:0,Mac,4,Times Bold
NameArray:0,Mac,4,Times Gras
NameArray:0,Mac,4,Times Fett
NameArray:0,Mac,4,Times grassetto
NameArray:0,Mac,4,Times vet
NameArray:0,Mac,4,Times Fet
NameArray:0,Mac,4,Times Negrita
NameArray:0,Mac,4,Times Fed
NameArray:0,Mac,4,Times Carregado
NameArray:0,Mac,4,Times Halvfet
NameArray:0,Mac,4,Times lihava
%EndFont

%BeginFont
Handler:DirectoryHandler
FontType:TrueType
FontName:Times-BoldItalic
FamilyName:Times
StyleName:Bold Italic
MenuName:Times
StyleBits:1
WeightClass:700
WidthClass:5
AngleClass:1
FullName:Times Bold Italic
WritingScript:Roman
OutlineFileName:/Users/lxw2175/Documents/git/govspeak-ho-sovereign-borders/english/main-doc/CCS207_CCS0820091708-001_Sovereign Borders Text COLLECT/Document fonts/Times.ttc
TTCOffset:1084
DataFormat:sfntData
hasSVG:no
VariableFontType:NonVariableFont
FileLength:915932
FileModTime:638207348
NameArray:0,Mac,4,Times Bold Italic
NameArray:0,Mac,4,Times Gras italique
NameArray:0,Mac,4,Times Fett Kursiv
NameArray:0,Mac,4,Times grassetto corsivo
NameArray:0,Mac,4,Times vet-cursief
NameArray:0,Mac,4,Times Fet Kursiv
NameArray:0,Mac,4,Times Negrita Cursiva
NameArray:0,Mac,4,Times Fed kursiv
NameArray:0,Mac,4,Times Carregado Itálico
NameArray:0,Mac,4,Times Halvfet kursiv
NameArray:0,Mac,4,Times lihava kursiivi
%EndFont

%BeginFont
Handler:DirectoryHandler
FontType:TrueType
FontName:Times-Italic
FamilyName:Times
StyleName:Italic
MenuName:Times
StyleBits:1
WeightClass:400
WidthClass:5
AngleClass:1
FullName:Times Italic
WritingScript:Roman
OutlineFileName:/Users/lxw2175/Documents/git/govspeak-ho-sovereign-borders/english/main-doc/CCS207_CCS0820091708-001_Sovereign Borders Text COLLECT/Document fonts/Times.ttc
TTCOffset:736
DataFormat:sfntData
hasSVG:no
VariableFontType:NonVariableFont
FileLength:915932
FileModTime:638207348
NameArray:0,Mac,4,Times Italic
NameArray:0,Mac,4,Times Italique
NameArray:0,Mac,4,Times Kursiv
NameArray:0,Mac,4,Times corsivo
NameArray:0,Mac,4,Times cursief
NameArray:0,Mac,4,Times Kursiv
NameArray:0,Mac,4,Times Cursiva
NameArray:0,Mac,4,Times kursiv
NameArray:0,Mac,4,Times Itálico
NameArray:0,Mac,4,Times kursiv
NameArray:0,Mac,4,Times kursiivi
%EndFont

%BeginFont
Handler:DirectoryHandler
FontType:TrueType
FontName:Times-Roman
FamilyName:Times
StyleName:Regular
MenuName:Times
StyleBits:0
WeightClass:400
WidthClass:5
AngleClass:0
FullName:Times Roman
WritingScript:Roman
OutlineFileName:/Users/lxw2175/Documents/git/govspeak-ho-sovereign-borders/english/main-doc/CCS207_CCS0820091708-001_Sovereign Borders Text COLLECT/Document fonts/Times.ttc
TTCOffset:40
DataFormat:sfntData
hasSVG:no
VariableFontType:NonVariableFont
FileLength:915932
FileModTime:638207348
NameArray:0,Mac,4,Times Roman
%EndFont

